{
	"label": "防具",
    "mapping": {
        "description": "system.description",
        "price": "system.zeni"
    },	
	"entries": {
		"Ashigaru Armor": {
			"name": "腹當",
			"price": "5 金",
			"description": "廉價、輕便且容易取得的腹當是發給足輕使用的護甲，既沒有美感，也沒有細膩的工藝。腹當由輕薄的金屬板縫合而成，用於保護頭部、軀幹和大腿，通常與輕便的頭盔搭配使用。儘管腹當的防護效果不如其他重型盔甲，但它輕巧、靈活，且相對便宜。"
		},
		"Ceremonial Clothes": {
			"name": "禮服",
			"price": "1 金",
			"description": "禮服是指在正式典禮中穿著的服飾，包括武士的宮廷和服，以及皇室成員所穿的正式服飾。禮服通常裝飾豐富，提供的保護較少。"
		},
		"Common Clothes": {
			"name": "便服",
			"price": "1 銀",
			"description": "翠麓的服裝種類繁多，從農民穿的簡單褲子和工作服，到傳統武士穿的寬肩羽織，再到貴族所穿的刺繡絲綢和服，應有盡有。"
		},
		"Concealed Armor": {
			"name": "布甲",
			"price": "5 金",
			"description": "布甲是一種內部縫有薄竹板或金屬板的和服、訓練服或其他服裝，用於防止意外的刀劍或箭矢攻擊。這種護甲通常由謹慎的朝臣、忍者和其他擔心被刺殺的人使用。"
		},
		"Firefighter's Coat": {
			"name": "Firefighter's Coat",
			"description": ""
		},
		"Inconspicuous garb": {
			"name": "Inconspicuous garb",
			"description": ""
		},
		"Lacquered Armor": {
			"name": "胴丸",
			"price": "25 金",
			"description": "胴丸比腹當更重，是武士穿戴的護甲，提供良好的防護和莊嚴感，在戰爭和典禮上都同樣適用。胴丸由厚實的皮革或鋼板縫合，並鉚接在皮革背板上製成，可以保護軀幹、頭部、上臂、腹股溝和小腿。"
		},
		"O-yoroi": {
			"name": "O-yoroi",
			"description": ""
		},
		"Plated Armor": {
			"name": "當世具足",
			"price": "40 金",
			"description": "當世具足是武士穿戴的最重盔甲之一，不像胴丸那樣華麗，且稍微有些不便，但同時也更加具有防護力。當世具足由許多小鋼板和皮革板透過鉚釘、絲繩、皮帶或鏈條連接而成。這些板塊附著在皮革或布料背板上，穿戴在絲質衣物之上，絲質衣物由於其強度而提供額外的防護，能夠抵擋穿刺的攻擊。"
		},
		"Robes of Judgment": {
			"name": "Robes of Judgment",
			"description": ""
		},
		"Sailor's garb": {
			"name": "Sailor's garb",
			"description": ""
		},
		"Sanctified Robes": {
			"name": "神聖祭袍",
			"price": "4 金",
			"description": "修驗者、神社管理者和其他宗教人士的祭袍，受到神明祝福，因此具有神祕的保護力量。傳統上，這樣的祭袍由一件稱為「淨衣」的白色衣物和一頂尖帽組成，但也可以更簡單，例如白色的羽織上衣和紅色的袴褲，甚至是精美的和服。"
		},
		"Shark leather armor": {
			"name": "Shark leather armor",
			"description": ""
		},
		"Sleeping Garb": {
			"name": "睡衣",
			"price": "1 金",
			"description": "大多數翠麓人沒有專用的睡衣，但有足夠財富或地位的人（例如武士）通常在睡覺時會穿著寬鬆的長袍、襯衫或者甚平。甚平由一件寬鬆的短袖上衣和配套的短褲組成，上衣束在腰間，僅供睡眠和私人休閒使用，通常由男性穿著。許多女性則選擇覆蓋肩部到小腿肚的連身裙。"
		},
		"Stealth Clothing": {
			"name": "Stealth Clothing",
			"description": ""
		},
		"Tatami Gusoku": {
			"name": "Tatami Gusoku",
			"description": ""
		},
		"Tosei-Gusoku": {
			"name": "Tosei-Gusoku",
			"description": ""
		},
		"Traveling Clothes": {
			"name": "旅行服裝",
			"price": "2 銀",
			"description": "旅行服裝通常由粗布製成，耐用抗磨損。旅行服裝可以是長袍、和服、外套和緊身褲的各種組合，通常還搭配帽子或斗篷。"
		}
	}
}