{
	"label": "物品",
    "mapping": {
        "description": "system.description",
        "price": "system.zeni"
    },	
	"entries": {
		"Alchemy Kit": {
			"name": "Alchemy Kit",
			"description": ""
		},
		"Amigasa": {
			"name": "Amigasa",
			"description": ""
		},
		"Animal Helm": {
			"name": "Animal Helm",
			"description": ""
		},
		"Arrows": {
			"name": "Arrows",
			"description": ""
		},
		"Astrolabe": {
			"name": "Astrolabe",
			"description": ""
		},
		"Bamboo Cane": {
			"name": "Bamboo Cane",
			"description": ""
		},
		"Banner of Amaterasu [Blessed Treasure]": {
			"name": "Banner of Amaterasu [Blessed Treasure]",
			"description": ""
		},
		"Battlefield Heirloom": {
			"name": "Battlefield Heirloom",
			"description": ""
		},
		"Battlefield Medical Pack": {
			"name": "Battlefield Medical Pack",
			"description": ""
		},
		"Blasting Powder (1 charge)": {
			"name": "Blasting Powder (1 charge)",
			"description": ""
		},
		"Bottle of Sake": {
			"name": "瓶裝清酒",
			"price": "1 銀",
			"description": "一種用米釀造的酒， 在整個翠麓都非常受歡迎，能在任何客棧輕鬆買到。酒的品質因製造者和銷售者而異。"
		},
		"Bowyer’s Kit": {
			"name": "護弓用具",
			"price": "2 銀",
			"description": "護弓用具是用於維護弓箭的工具包。通常包括一組小型工具、備用弓弦、一些羽毛、蠟、竹纖維、箭頭和其他維護弓箭所需的物品。"
		},
		"Brilliant Flare": {
			"name": "Brilliant Flare",
			"description": ""
		},
		"Calligraphy Set": {
			"name": "書法用具",
			"price": "1 銀",
			"description": "這種華麗的盒子裡裝滿書法家製作的書籍、信件、卷軸和其他書面交流所需的工具。包括一個小木盒，裡面裝有各種毛筆、硯台和墨水，以及一個盛水的小碗、用於晾乾的一小袋沙子。書法家和抄寫員通常都會隨身攜帶一套書法用具，有些武士和朝臣也喜歡自己寫信，所以也會使用這樣的書法用具。"
		},
		"Ceremonial Tea Set": {
			"name": "Ceremonial Tea Set",
			"description": ""
		},
		"Chandu": {
			"name": "Chandu",
			"description": ""
		},
		"Chopsticks": {
			"name": "筷子",
			"price": "1 銅",
			"description": "筷子是翠麓人主要使用的餐具。一般以一雙為單位出售，這些纖細的餐具通常由木頭或竹子製成，有些富裕的人會使用象牙、骨頭或金屬製成的筷子。"
		},
		"Climbing Kit": {
			"name": "Climbing Kit",
			"description": ""
		},
		"Cooking Kit": {
			"name": "Cooking Kit",
			"description": ""
		},
		"Daishō Stand": {
			"name": "大小刀架",
			"price": "1 金",
			"description": "這是一個可折疊的小巧木架，用於展示武士的大小刀。展示大小刀有特定的禮儀，這反映了一個人的備戰程度。如果刀柄向右展示，表示這個人準備好戰鬥，因為他們可以輕易用右手從架子上抽出刀。如果刀柄向左展示，表示這個人不準備作戰，但仍然保持警戒。如果刀柄向左，而且刀鍔在架子的內側，表示這個人非常放鬆，因為這樣的擺法無法一次抽出刀來。"
		},
		"Demon Mask": {
			"name": "Demon Mask",
			"description": ""
		},
		"Dice and Cup": {
			"name": "骰子與骰盅",
			"price": "25 銅",
			"description": "用於在翠麓各地玩各種骰子遊戲。賭博在翡翠帝國非常流行，但大多武士嗤之以鼻。有組織的賭博活動主要由各種犯罪集團控制，通常會導致當地官員的腐敗問題。"
		},
		"Dice Kit": {
			"name": "Dice Kit",
			"description": ""
		},
		"Disguise Kit": {
			"name": "Disguise Kit",
			"description": ""
		},
		"Divination Kit": {
			"name": "占卜用具",
			"price": "1 銀",
			"description": "占卜用具在迷信的農民和神祕的修驗者中都很受歡迎，用於預測未來或與靈界交流。占卜用具可能包含特殊的硬幣、棍棒、骨頭或其他具有象徵意義的小物品。占卜者透過將硬幣或棍棒擲在地上，辨識它們所創造的圖案，以尋找任何預兆。"
		},
		"Engineer's Kit": {
			"name": "Engineer's Kit",
			"description": ""
		},
		"Finger of Jade": {
			"name": "玉指",
			"price": "1 金",
			"description": "玉指是一塊珍貴的綠寶石，用繩子繫在頸部，以避免腐化之力的影響。逐漸地，玉指會被這個過程所消耗。"
		},
		"Fishing kit": {
			"name": "Fishing kit",
			"description": ""
		},
		"Fishing Rod and Line": {
			"name": "Fishing Rod and Line",
			"description": ""
		},
		"Folding Fan": {
			"name": "Folding Fan",
			"description": ""
		},
		"Games": {
			"name": "各式遊戲",
			"price": "1 銀",
			"description": "這些小巧、便攜且堅固的遊戲專為長途旅行而設計。在適合旅行的遊戲裡，最常見的是圍棋、將棋和其他深受武士和官員喜愛的棋盤或紙牌遊戲，但遊戲的種類非常繁多。"
		},
		"Herbal Medicines": {
			"name": "Herbal Medicines",
			"description": ""
		},
		"Invisible Ink": {
			"name": "Invisible Ink",
			"description": ""
		},
		"Jade Petal Tea [Blessed Treasure]": {
			"name": "Jade Petal Tea [Blessed Treasure]",
			"description": ""
		},
		"Journal of observations": {
			"name": "Journal of observations",
			"description": ""
		},
		"Kubi Bukuro": {
			"name": "首袋",
			"price": "2 銅",
			"description": "這些簡單的網袋用於攜帶敵人的首級，這被視為戰利品和好兆頭。戰獅氏族的武士使用首袋來攜帶戰利品，而不親手接觸遺體。久彌家則使用首袋來收集暗影之地生物的樣本進行研究。"
		},
		"Leadership Scrolls [Blessed Treasure]": {
			"name": "Leadership Scrolls [Blessed Treasure]",
			"description": ""
		},
		"Lucky Cricket": {
			"name": "幸運蟋蟀",
			"price": "4 銀",
			"description": "華麗金屬籠中的一隻小蟋蟀，這種物品在螳螂氏族中非常受歡迎，被認為能帶來好運。"
		},
		"Makeup Kit": {
			"name": "Makeup Kit",
			"description": ""
		},
		"Makibishi": {
			"name": "Makibishi",
			"description": ""
		},
		"Mari (Ball)": {
			"name": "Mari (Ball)",
			"description": ""
		},
		"Mason's Kit": {
			"name": "Mason's Kit",
			"description": ""
		},
		"Medicine Kit": {
			"name": "醫療用具",
			"price": "1 銀",
			"description": "一個簡單的急救包，其中包含治療各種傷口所需的必要用品，包括針線、布繃帶、草本消毒劑、各種藥膏和酊劑，以及其他治療物品。"
		},
		"Mempō": {
			"name": "Mempō",
			"description": ""
		},
		"Metsubushi": {
			"name": "Metsubushi",
			"description": ""
		},
		"Mizugumo (Water Spider)": {
			"name": "Mizugumo (Water Spider)",
			"description": ""
		},
		"Modified Scabbard": {
			"name": "Modified Scabbard",
			"description": ""
		},
		"Mono Imi Fuda (Taboo Plaque)": {
			"name": "Mono Imi Fuda (Taboo Plaque)",
			"description": ""
		},
		"Musical Instrument": {
			"name": "樂器",
			"price": "1~5 銀",
			"description": "翠麓的音樂豐富多樣，許多人都至少可以演奏簡單的笛子或鼓。常見的樂器包括三味線、琵琶和箏。許多朝臣會攜帶樂器以展示他們的才華，而鼓在戰士中很受歡迎，用於向部隊發號施令和傳遞訊息。"
		},
		"Norimono (Planquin)": {
			"name": "Norimono (Planquin)",
			"description": ""
		},
		"Obsidian Ink [Blessed Treasure]": {
			"name": "Obsidian Ink [Blessed Treasure]",
			"description": ""
		},
		"Omamori": {
			"name": "御守",
			"price": "5 銀",
			"description": "<p>御守是一種護身符，在翡翠帝國的許多神社出售，通常以小信封或袋子的形式包裝，內含特定神明（通常是大福神之一）的禱詞。大多數御守可以抵抗特定類型的厄運（例如疾病或事故）、或讓某個領域更加好運（例如農業、旅行或婚姻），但這些效果從未受到嚴格的測試，畢竟，神明的行動是以凡人看不見的方式進行的，很難斷定御守是否真正保護到人的安全。</p><p>修驗者和其他神明使者具有創造護身符的能力。這些護身符通常包含七大福神的祝福（以下列舉三位），但也可以透過呼喚其他力量來提供其他形式的保護。</p><p>每一個護身符都需要神明的專心關注，如果一個人同時佩戴多個護身符，神明可能會感到分心或不滿，導致這些護身符的力量無法有效地發揮作用。</p>"
		},
		"Omamori (Boon of Hotei)": {
			"name": "Omamori (Boon of Hotei)",
			"description": ""
		},
		"Omamori (Boon of Jurojin)": {
			"name": "Omamori (Boon of Jurojin)",
			"description": ""
		},
		"Omamori (Boon of Kisshoten)": {
			"name": "Omamori (Boon of Kisshoten)",
			"description": ""
		},
		"Opening and Closing Tools": {
			"name": "Opening and Closing Tools",
			"description": ""
		},
		"Performer's Boat": {
			"name": "Performer's Boat",
			"description": ""
		},
		"Personal Seal or Chop": {
			"name": "個人印章",
			"price": "4 銀",
			"description": "個人印章是武士用於確認身分和簽署文件等官方業務的重要物品。每一個印章都是獨特的設計，並在三矢家註冊。使用他人的印章被視為侮辱和嚴重的犯罪行為。"
		},
		"Pillow Book": {
			"name": "枕邊小書",
			"price": "3 銅",
			"description": "一本裝訂鬆散、製作粗糙的小書，內容通常是武士認為不夠嚴肅的文學流派，例如言情、冒險或詩歌。枕邊小書也可以是一位名人的生平記載或日記的改編版本。重要的文學作品偶爾也會被改編成枕邊小書，以方便攜帶。"
		},
		"Poison (One Vial)": {
			"name": "毒藥  (一瓶)",
			"price": "30 銅",
			"description": "在翡翠帝國的宮廷中，政治的輪盤有時會因不光彩的手段而轉動。毒蠍氏族的成員並不介意使用毒藥來削弱或消滅政治對手，儘管他們的罪行很難被證實。在絕望或恐懼的時刻，許多武士也會採取這樣的手段。"
		},
		"Poppy Tea": {
			"name": "Poppy Tea",
			"description": ""
		},
		"Portable Boat": {
			"name": "Portable Boat",
			"description": ""
		},
		"Quiver of Arrow": {
			"name": "箭袋",
			"price": "20 銅",
			"description": "<p>箭袋是一種用於攜帶箭矢的布製或皮製容器，可以繫在腰間或掛在肩上。標準的箭袋可以容納六十支以上的箭矢。另外也有用於弩矢、吹箭、石彈等其他彈藥的便攜袋，功能與箭袋相同。</p><p>只要角色擁有一個可用的箭袋，就假設他們不會用完標準的彈藥。此外，也假設角色會在合理的機會下重新裝滿箭袋，例如在造訪一個警衛哨站或建有軍械庫的城堡時。</p><p>如果角色在很長一段時間內都沒有合理的機會來重新填充箭袋，GM 可以宣告箭袋即將用盡，只剩下 3 支標準彈藥，然後角色可以獲得 1 點空明值（角色仍然可以保留擁有的特殊彈藥）。</p><p>角色可以造訪能夠獲取彈藥的地點來填充箭袋、或使用生存技能來製作箭矢（如果具備適當的材料）。</p>"
		},
		"Rope (By the Foot)": {
			"name": "繩索 (一呎)",
			"price": "5~20 銅",
			"description": "繩索由各種材料製成，可以用於各種任務，例如捆綁敵人、束縛牲畜、攀登山壁、固定船帆。低品質的繩索通常由大麻製成，材質粗糙而僵硬。高品質的繩索則由毛髮、絲綢或更珍貴的纖維製成。"
		},
		"Rope Ladder": {
			"name": "Rope Ladder",
			"description": ""
		},
		"Saihai": {
			"name": "Saihai",
			"description": ""
		},
		"Sake Cup": {
			"name": "清酒杯",
			"price": "1 銀",
			"description": "用於飲用清酒的小杯子，用木頭、瓷或金屬製成。在帝國的許多地區，客人在聚會和正式場合中習慣自帶杯子。富裕或有地位的人通常會攜帶華麗裝飾的杯子，使用昂貴的材料製成，給其他客人留下深刻印象。"
		},
		"Sapper's Kit": {
			"name": "Sapper's Kit",
			"description": ""
		},
		"Sashimono": {
			"name": "Sashimono",
			"description": ""
		},
		"Scroll satchel": {
			"name": "Scroll satchel",
			"description": ""
		},
		"Sekihitsu": {
			"name": "Sekihitsu",
			"description": ""
		},
		"Shikomizue": {
			"name": "Shikomizue",
			"description": ""
		},
		"Smithy's Kit": {
			"name": "Smithy's Kit",
			"description": ""
		},
		"Smoke Arrows": {
			"name": "Smoke Arrows",
			"description": ""
		},
		"Smoking Pipe": {
			"name": "Smoking Pipe",
			"description": ""
		},
		"Sokutoki": {
			"name": "Sokutoki",
			"description": ""
		},
		"Spices": {
			"name": "香料",
			"price": "1~5 銀",
			"description": "在整個翠麓中，香料不僅用於調味食物，也是重要的貿易商品。雖然一些重要的香料是帝國本土的，例如山葵和山椒，但許多香料都是進口的。根據產地和稀有性，香料可以非常昂貴。為了控制香料貿易，各種派系甚至曾經流血相爭。"
		},
		"Spyglass": {
			"name": "Spyglass",
			"description": ""
		},
		"Sweets (Four Servings)": {
			"name": "甜點 (四份)",
			"price": "1 銀",
			"description": "糖果、小蛋糕和其他甜點，在帝國的眾多節慶非常受歡迎。典型的翠麓甜點以凝乳和甜飯糰為主，但也有一些具有異國風味的外國美食在翠麓各地製作而成，在奇麟領地尤其常見。"
		},
		"Tailor's Kit": {
			"name": "Tailor's Kit",
			"description": ""
		},
		"Taketaba": {
			"name": "Taketaba",
			"description": ""
		},
		"TaraiBune": {
			"name": "TaraiBune",
			"description": ""
		},
		"Tate": {
			"name": "Tate",
			"description": ""
		},
		"Tattoo Needles": {
			"name": "紋身針",
			"price": "1 銀",
			"description": "這些用於紋身的鋼針或竹針在潛龍氏族中非常受歡迎。紋身針通常是一套工具包的一部分，其中包括針、各種顏料和其他紋身藝術家在工作中使用的工具。紋身不僅在潛龍氏族中廣泛流行，也在帝國眾多的犯罪集團中普遍存在。這些犯罪集團使用紋身來辨識特定集團的成員，並紀錄個人的犯罪行為。"
		},
		"Tea Set (Portable)": {
			"name": "便攜茶具",
			"price": "1 金",
			"description": "在翠麓社會中，茶道極為重要。這些便攜的小型茶具設計可以承受粗魯的動作和旅行，讓武士能夠在遠離家鄉時也能享受茶道的和諧與放鬆。"
		},
		"Tent (Chomchong)": {
			"name": "豪華帳篷",
			"price": "20 金",
			"description": "這種龐大且精緻的移動住所在奇麟氏族中很受歡迎，這些帳篷堅固耐用，能有效遮風擋雨，可以舒適地容納多達十二個人。豪華帳棚也被用來作為貴族家庭的臨時居所，為他們在野外提供盡可能的奢華享受。搭建和拆卸豪華帳棚需要相當長的時間，需要數頭牛和一輛大型馬車才能運載。"
		},
		"Tent (Small)": {
			"name": "小帳篷",
			"price": "1 金",
			"description": "這種基本帳篷的大小剛好可以讓兩個人在野外保持溫暖和乾燥，非常容易搭建和拆卸，體積相對較小，可以由人背負、放在車上或掛在馬上運載。"
		},
		"Tent (Yurt)": {
			"name": "圓頂帳篷",
			"price": "10 金",
			"description": "圓頂帳篷由奇麟氏族從遙遠的草原引入翠麓，比一般的帳篷大，但不像豪華帳篷那麼豪華。圓頂帳篷由厚皮革或帆布製成，地板則使用厚毛氈，可以舒適地容納四個人。圓頂帳篷重量較重，且不易搭建或拆卸，需要專用的馬匹或牛隻來運載。"
		},
		"Tenugui": {
			"name": "Tenugui",
			"description": ""
		},
		"Tetsubishi": {
			"name": "Tetsubishi",
			"description": ""
		},
		"The Anvil of Despair [Concealed Horror]": {
			"name": "The Anvil of Despair [Concealed Horror]",
			"description": ""
		},
		"The Black Pearls of Fu Leng [Concealed Horror]": {
			"name": "The Black Pearls of Fu Leng [Concealed Horror]",
			"description": ""
		},
		"The blade with no name: Ancestral sword of the Dragon [Blessed Treasure]": {
			"name": "The blade with no name: Ancestral sword of the Dragon [Blessed Treasure]",
			"description": ""
		},
		"The Claws of the Kitsu [Blessed Treasure]": {
			"name": "The Claws of the Kitsu [Blessed Treasure]",
			"description": ""
		},
		"The Henge-Okurimono [Concealed Horror]": {
			"name": "The Henge-Okurimono [Concealed Horror]",
			"description": ""
		},
		"The Jade Cups of Taira [Blessed Treasure]": {
			"name": "The Jade Cups of Taira [Blessed Treasure]",
			"description": ""
		},
		"The Porcelain Mask of Fu Leng [Concealed Horror]": {
			"name": "The Porcelain Mask of Fu Leng [Concealed Horror]",
			"description": ""
		},
		"Thievery Kit": {
			"name": "Thievery Kit",
			"description": ""
		},
		"Travel Rations": {
			"name": "Travel Rations",
			"description": ""
		},
		"Traveling pack": {
			"name": "Traveling pack",
			"description": ""
		},
		"Traveling Rations": {
			"name": "旅行口糧",
			"price": "5 銅",
			"description": "旅行口糧是由各種保存食品組成，能讓一個人在旅途中維持飲食健康。通常包括魚乾、用紙包裹的飯糰、水或茶、醃漬蔬菜和其他能夠抵禦風雨的堅韌食物。"
		},
		"Uchitake": {
			"name": "Uchitake",
			"description": ""
		},
		"Uma-Jirushi": {
			"name": "Uma-Jirushi",
			"description": ""
		},
		"Umbrella": {
			"name": "雨傘",
			"price": "2 銀",
			"description": "雨傘通常由柳條和絲綢製成，可以為攜帶者遮擋陽光和雨水。傳說中，劍術大師能夠將雨傘用作臨時武器，然而，對大多數人來說，要達到這種奇妙想法可能並不容易。"
		},
		"Weaver's Kit": {
			"name": "Weaver's Kit",
			"description": ""
		},
		"Whetstone": {
			"name": "磨刀石",
			"price": "1 銅",
			"description": "磨刀石方便攜帶，用於磨削大多數的刀劍武器，但不包括武士刀和脇差，這些必須由專業的刀匠來維護。"
		}
	}
}